clean_demo
…
# clean article titles by removing stop words
articles_clean <-
    articles_token %>%
    anti_join(stop_words)

Joining with `by = join_by(word)`

# count word frequency
articles_clean %>%
    count(word, sort = TRUE) %>%
    head(n = 30)

# A tibble: 30 × 2
   word          n
   <chr>     <int>
 1 hiv         307
 2 infection    90
 3 aids         85
 4 patients     71
 5 treatment    61
 6 1            60
 7 human        52
 8 infected     49
 9 virus        49
10 drug         37
# ℹ 20 more rows
…
